[{
    "title": "university",
    "text": "Did you go to university?",
    "identifier": "personal-000",
    "conditions": {"minQuestions": 5}
},
{
    "title": "male",
    "text": "Are you male?",
    "identifier": "personal-001",
    "conditions": {"or": [{"identifier": "personal-002", "answer": "false"}, {"not": {"identifier": "personal-002"}}]} 
},
{
    "title": "female",
    "text": "Are you female?",
    "identifier": "personal-002",
    "conditions": {"or": [{"identifier": "personal-001", "answer": "false"}, {"not": {"identifier": "personal-001"}}]} 
},
{
    "title": "age20",
    "text": "Are you under 20 years old?",
    "identifier": "personal-003"
},
{
    "title": "age30",
    "text": "Are you between 20 and 30 years old?",
    "identifier": "personal-004",
    "conditions": {"or": [{"identifier": "personal-003", "answer": "false"}, {"not": {"identifier": "personal-003"}}]} 
},
{
    "title": "age40",
    "text": "Are you between 30 and 40 years old?",
    "identifier": "personal-005",
    "conditions": {"or": [{"identifier": "personal-004", "answer": "false"}, {"not": {"identifier": "personal-004"}}]} 
},
{
    "title": "age50",
    "text": "Are you between 40 and 50 years old?",
    "identifier": "personal-006",
    "conditions": {"or": [{"identifier": "personal-005", "answer": "false"}, {"not": {"identifier": "personal-005"}}]} 
},
{
    "title": "age60",
    "text": "Are you between 50 and 60 years old?",
    "identifier": "personal-007",
    "conditions": {"or": [{"identifier": "personal-006", "answer": "false"}, {"not": {"identifier": "personal-006"}}]} 
},
{
    "title": "age70",
    "text": "Are you more than 60 years old?",
    "identifier": "personal-008",
    "conditions": {"or": [{"identifier": "personal-007", "answer": "false"}, {"not": {"identifier": "personal-007"}}]} 
},
{
    "title": "condition",
    "text": "Do you have a condition that makes it difficult for you to do certain tasks?",
    "identifier": "personal-009"
},
{
    "title": "employed",
    "text": "Were you already employed once?",
    "identifier": "personal-010"
}]
